[
	{
		"country": "France",
		"variants": [
			{
				"url": "https://fr.ftp.opendatasoft.com/openscol/fr-en-calendrier-scolaire/Zone-A.ics",
				"name": "Zone A",
				"licence": "Licence Ouverte / Open Licence"
			},
			{
				"url": "https://fr.ftp.opendatasoft.com/openscol/fr-en-calendrier-scolaire/Zone-B.ics",
				"name": "Zone B",
				"licence": "Licence Ouverte / Open Licence"
			},
			{
				"url": "https://fr.ftp.opendatasoft.com/openscol/fr-en-calendrier-scolaire/Zone-C.ics",
				"name": "Zone C",
				"licence": "Licence Ouverte / Open Licence"
			},
			{
				"url": "https://fr.ftp.opendatasoft.com/openscol/fr-en-calendrier-scolaire/Corse.ics",
				"name": "Corse",
				"licence": "Licence Ouverte / Open Licence"
			},
			{
				"url": "https://fr.ftp.opendatasoft.com/openscol/fr-en-calendrier-scolaire/Zone-A-B-C-Corse.ics",
				"name": "France Métropolitaine",
				"licence": "Licence Ouverte / Open Licence"
			}
		],
		"source": "https://www.data.gouv.fr/fr/datasets/le-calendrier-scolaire/",
		"variant_help": "https://www.education.gouv.fr/calendrier-scolaire-100148"
	},
	{
		"country": "Luxembourg",
		"url": "https://data.public.lu/en/datasets/r/17a030a8-d4d4-488a-a867-c7cf5d746657",
		"licence": "CC-0",
		"source": "https://data.public.lu/fr/datasets/vacances-et-conges-scolaires/"
	},
	{
		"country": "Australia",
		"variants": [
			{
				"url": "https://www.vic.gov.au/sites/default/files/2021-12/Victorian-school-term-dates.ics",
				"name": "Victoria",
				"licence": "Official Website",
				"source": "https://www.vic.gov.au/ical#school-term-dates"
			},
			{
				"name": "Queensland",
				"url": "https://education.qld.gov.au/about/Documents/qld-school-holidays.ics",
				"source": "https://education.qld.gov.au/about-us/calendar/icalendar",
				"licence": "Official Website"
			},
			{
				"name": "South Australia",
				"url": "https://www.education.sa.gov.au/sites/default/files/south-australia-government-school-term-dates-2022.ics",
				"source": "https://www.education.sa.gov.au/parents-and-families/term-dates-south-australian-state-schools",
				"licence": "Official Website"
			}
		]
	},
	{
		"country": "New Zealand",
		"source": "https://www.education.govt.nz/school/school-terms-and-holiday-dates/#ical",
		"variants": [
			{
				"name": "Primary and intermediate school terms and holidays",
				"licence": "Official website",
				"urls": [
					{
						"date": "2022",
						"url": "https://assets.education.govt.nz/public/Documents/Ministry/SchoolTerms/Primary-and-intermediate-school-terms-and-holidays-to-2022-Calendar.ics"
					},
					{
						"url": "https://assets.education.govt.nz/public/Documents/Ministry/SchoolTerms/Primary-and-intermediate-school-terms-and-holidays-2023-Calendar-v2.ics",
						"date": "2023"
					},
					{
						"url": "https://assets.education.govt.nz/public/Documents/Ministry/SchoolTerms/Primary-and-intermediate-school-terms-and-holidays-2024-Calendar.ics",
						"date": "2024"
					}
				]
			},
			{
				"name": "Primary and intermediate school terms and holidays",
				"licence": "Official website",
				"urls": [
					{
						"date": "2022",
						"url": "https://assets.education.govt.nz/public/Documents/Ministry/SchoolTerms/Secondary-and-composite-school-terms-and-holidays-to-2022-Calendar.ics"
					},
					{
						"url": "https://assets.education.govt.nz/public/Documents/Ministry/SchoolTerms/Secondary-and-composite-school-terms-and-holiday-2023-Calendar.ics",
						"date": "2023"
					},
					{
						"url": "https://assets.education.govt.nz/public/Documents/Ministry/SchoolTerms/Secondary-and-composite-school-terms-and-holidays-2024-Calendar.ics",
						"date": "2024"
					}
				]
			}
		]
	},
	{
		"country": "England",
		"variants": [
			{
				"url": "https://www.eastsussex.gov.uk/api/schools/GetTermsCalendar",
				"source": "https://www.eastsussex.gov.uk/education-learning/term-dates",
				"licence": "Official Website",
				"name": "East Sussex"
			},
			{
				"name": "Staffordshire",
				"url": "https://www.staffordshire.gov.uk/Education/Term-Dates-20212022-Calendar.ics",
				"source": "https://www.staffordshire.gov.uk/Education/termdates.aspx",
				"licence": "Official Website"
			},
			{
				"name": "York",
				"licence": "Official Website",
				"urls": [
					{
						"date": "2021/2022",
						"url": "https://www.york.gov.uk/downloads/file/5661/term-dates-2021-to-2022-icalendar"
					},
					{
						"date": "2022/2023",
						"url": "https://www.york.gov.uk/downloads/file/6758/term-dates-2022-to-2023-icalendar"
					}
				]
			}
		]
	},
	{
		"country": "Scotland",
		"variants": [
			{
				"name": "Midlothian",
				"url": "https://www.midlothian.gov.uk/download/downloads/id/4318/ical_import_school_term_dates_2022_to_2025.ics",
				"licence": "Official Website"
			}
		]
	}
]
